\relax 
\providecommand\hyper@newdestlabel[2]{}
\providecommand\HyperFirstAtBeginDocument{\AtBeginDocument}
\HyperFirstAtBeginDocument{\ifx\hyper@anchor\@undefined
\global\let\oldcontentsline\contentsline
\gdef\contentsline#1#2#3#4{\oldcontentsline{#1}{#2}{#3}}
\global\let\oldnewlabel\newlabel
\gdef\newlabel#1#2{\newlabelxx{#1}#2}
\gdef\newlabelxx#1#2#3#4#5#6{\oldnewlabel{#1}{{#2}{#3}}}
\AtEndDocument{\ifx\hyper@anchor\@undefined
\let\contentsline\oldcontentsline
\let\newlabel\oldnewlabel
\fi}
\fi}
\global\let\hyper@last\relax 
\gdef\HyperFirstAtBeginDocument#1{#1}
\providecommand\HyField@AuxAddToFields[1]{}
\providecommand\HyField@AuxAddToCoFields[2]{}
\citation{Heath2011}
\citation{Prud'hommeaux:08:SQL}
\citation{Han:2005:DMC:1076797}
\citation{Fielding:2002:PDM:514183.514185}
\citation{rfc7159}
\@writefile{toc}{\contentsline {section}{\numberline {1}Introduzione}{1}{section.1}}
\@writefile{toc}{\contentsline {section}{\numberline {2}Interrogazione}{2}{section.2}}
\newlabel{sec:interrogazione}{{2}{2}{Interrogazione}{section.2}{}}
\@writefile{toc}{\contentsline {subsection}{\numberline {2.1}Tipi}{2}{subsection.2.1}}
\@writefile{toc}{\contentsline {subsection}{\numberline {2.2}API}{2}{subsection.2.2}}
\@writefile{toc}{\contentsline {section}{\numberline {3}Clustering}{3}{section.3}}
\newlabel{sec:clustering}{{3}{3}{Clustering}{section.3}{}}
\@writefile{toc}{\contentsline {subsection}{\numberline {3.1}Tipi}{3}{subsection.3.1}}
\@writefile{toc}{\contentsline {subsection}{\numberline {3.2}API}{3}{subsection.3.2}}
\@writefile{toc}{\contentsline {section}{\numberline {4}Ranking}{5}{section.4}}
\newlabel{sec:ranking}{{4}{5}{Ranking}{section.4}{}}
\@writefile{toc}{\contentsline {subsection}{\numberline {4.1}Tipi}{5}{subsection.4.1}}
\@writefile{toc}{\contentsline {subsection}{\numberline {4.2}API}{5}{subsection.4.2}}
\@writefile{toc}{\contentsline {section}{\numberline {5}Interrogazione \& Mining}{7}{section.5}}
\newlabel{sec:both}{{5}{7}{Interrogazione \& Mining}{section.5}{}}
\@writefile{toc}{\contentsline {subsection}{\numberline {5.1}API}{7}{subsection.5.1}}
\bibstyle{apalike}
\bibdata{bibliography}
\bibcite{rfc7159}{Bray, 2014}
\bibcite{Fielding:2002:PDM:514183.514185}{Fielding and Taylor, 2002}
\bibcite{Han:2005:DMC:1076797}{Han, 2005}
\bibcite{Heath2011}{Heath and Bizer, 2011}
\bibcite{Prud'hommeaux:08:SQL}{Prud'hommeaux and Seaborne, 2008}
