\relax 
\providecommand\hyper@newdestlabel[2]{}
\providecommand\HyperFirstAtBeginDocument{\AtBeginDocument}
\HyperFirstAtBeginDocument{\ifx\hyper@anchor\@undefined
\global\let\oldcontentsline\contentsline
\gdef\contentsline#1#2#3#4{\oldcontentsline{#1}{#2}{#3}}
\global\let\oldnewlabel\newlabel
\gdef\newlabel#1#2{\newlabelxx{#1}#2}
\gdef\newlabelxx#1#2#3#4#5#6{\oldnewlabel{#1}{{#2}{#3}}}
\AtEndDocument{\ifx\hyper@anchor\@undefined
\let\contentsline\oldcontentsline
\let\newlabel\oldnewlabel
\fi}
\fi}
\global\let\hyper@last\relax 
\gdef\HyperFirstAtBeginDocument#1{#1}
\providecommand\HyField@AuxAddToFields[1]{}
\providecommand\HyField@AuxAddToCoFields[2]{}
\citation{Heath2011}
\citation{Prud'hommeaux:08:SQL}
\citation{Han:2005:DMC:1076797}
\citation{Fielding:2002:PDM:514183.514185}
\citation{rfc7159}
\@writefile{toc}{\contentsline {section}{\numberline {1}Introduzione}{1}{section.1}}
\@writefile{toc}{\contentsline {section}{\numberline {2}Componenti}{1}{section.2}}
\newlabel{sec:componenti}{{2}{1}{Componenti}{section.2}{}}
\citation{Gamma:1995:DPE:186897,Buschmann:1996:PSA:249013}
\@writefile{lof}{\contentsline {figure}{\numberline {1}{\ignorespaces Diagramma delle componenti\relax }}{2}{figure.caption.1}}
\@writefile{toc}{\contentsline {section}{\numberline {3}Diagrammi delle Classi}{3}{section.3}}
\@writefile{toc}{\contentsline {subsection}{\numberline {3.1}Diagramma delle classi Entity}{4}{subsection.3.1}}
\@writefile{lof}{\contentsline {figure}{\numberline {2}{\ignorespaces Diagramma delle classi Entity\relax }}{4}{figure.caption.2}}
\@writefile{toc}{\contentsline {subsection}{\numberline {3.2}Diagramma delle classi Control}{5}{subsection.3.2}}
\@writefile{lof}{\contentsline {figure}{\numberline {3}{\ignorespaces Diagramma delle classi Control\relax }}{5}{figure.caption.3}}
\bibstyle{apalike}
\bibdata{bibliography}
\bibcite{rfc7159}{Bray, 2014}
\bibcite{Buschmann:1996:PSA:249013}{Buschmann et\nobreakspace  {}al., 1996}
\bibcite{Fielding:2002:PDM:514183.514185}{Fielding and Taylor, 2002}
\bibcite{Gamma:1995:DPE:186897}{Gamma et\nobreakspace  {}al., 1995}
\bibcite{Han:2005:DMC:1076797}{Han, 2005}
\bibcite{Heath2011}{Heath and Bizer, 2011}
\bibcite{Prud'hommeaux:08:SQL}{Prud'hommeaux and Seaborne, 2008}
\@writefile{toc}{\contentsline {subsection}{\numberline {3.3}Diagramma delle classi Boundary}{6}{subsection.3.3}}
\@writefile{lof}{\contentsline {figure}{\numberline {4}{\ignorespaces Diagramma delle classi Boundary\relax }}{6}{figure.caption.4}}
